9.- Predicciones probabilísticas – Decisiones bajo incertidumbre - Business Analytics Bayesiano con R
…
La pregunta de negocio es:

¿Qué beneficios podríamos esperar bajo distintos niveles de descuento?

9.8 Generando escenarios futuros

Supongamos que queremos estudiar varios niveles de descuento.

# Generar varios niveles de descuento
nuevos_descuentos <- tibble(
  Discount_c = seq(0, 80, by = 5)
)
nuevos_descuentos[1:7,] # produce:

# A tibble: 7 × 1
  Discount_c
       <dbl>
1          0
2          5
3         10
4         15
5         20
6         25
7         30

Ahora generamos predicciones.

# Generar una matriz de predicciones
predicciones <- posterior_predict(
  modelo_profit,
  newdata = nuevos_descuentos
)
predicciones[1:4, 1:4] # produce:

             1         2         3          4
[1,]  127.9585  374.8490 -236.2800 -111.45925
[2,] -214.8982  168.3496  243.3044   60.55305
[3,]  114.1008 -176.8744  535.4702 -164.25150
[4,] -211.2330 -217.1305  497.8658 -111.58314

[ reached ‘max’ / getOption(“max.print”) – omitted 996 rows ]
…
# van del 1 al 17 y simulacion va del 1 al 100. Entonces en total
# hay 1700 filas
escenarios <- predicciones %>%
  as.data.frame() %>% # Cambia de formato matriz a dataframe
  slice_sample(n = 100) %>% # Se toma una muestra de 100 
  mutate(simulacion = row_number()) %>% # Se crea una variable para
                                        # numerar las filas  
  pivot_longer( # Cambiar la tabla a formato largo
    -simulacion, # usa todas las columnas excepto simulacion
    names_to = "escenario",
    values_to = "profit"
  )
escenarios # produce

# A tibble: 1,700 × 3
   simulacion escenario profit
        <int> <chr>      <dbl>
 1          1 1           18.6
 2          1 2          303. 
 3          1 3         -229. 
 4          1 4          433. 
 5          1 5          -89.4
 6          1 6          101. 
 7          1 7          272. 
 8          1 8          123. 
 9          1 9         -339. 
10          1 10        -267. 
# ℹ 1,690 more rows
…
# Mostrar en formato largo los escenarios, donde los escenarios
# van del 1 al 17 y simulacion va del 1 al 100
escenarios2  %>%  
  pivot_longer( # Cambiar la tabla a formato largo
    -simulacion, # usa todas las columnas excepto simulacion
    names_to = "escenario",
    values_to = "profit"
  )

# A tibble: 1,700 × 3
   simulacion escenario profit
        <int> <chr>      <dbl>
 1          1 1          243. 
 2          1 2          284. 
 3          1 3          132. 
 4          1 4         -167. 
 5          1 5         -162. 
 6          1 6         -364. 
 7          1 7          115. 
 8          1 8         -227. 
 9          1 9           35.0
10          1 10        -366. 
# ℹ 1,690 more rows
…
