14.- Forecasting para humanos normales – Decisiones bajo incertidumbre - Business Analytics Bayesiano con R
…
    2,
    quantile,
    probs = 0.10
  ),
  high = apply(
    future_draws,
    2,
    quantile,
    probs = 0.90
  )
)
# Imprimir 6 filas de las 90 (90 días)
forecast_summary # produce:

# A tibble: 90 × 4
     day median   low  high
   <int>  <dbl> <dbl> <dbl>
 1  1238  2503. -427. 5497.
 2  1239  2524. -390. 5615.
 3  1240  2573. -509. 5311.
 4  1241  2665. -203. 5520.
 5  1242  2553. -317. 5639.
 6  1243  2614. -458. 5508.
 7  1244  2522. -282. 5573.
 8  1245  2601. -342. 5450.
 9  1246  2520. -365. 5578.
10  1247  2471. -212. 5439.
# ℹ 80 more rows
…
